[Event "Rome"]
[Site "Rome"]
[Date "1560.??.??"]
[Round "?"]
[White "Lopez de Segura, Ruy"]
[Black "Leonardo, Giovanni da Cutro"]
[Result "1-0"]
[ECO "C30"]
[PlyCount "23"]
[EventDate "1560.??.??"]
[EventType "game"]
[EventRounds "1"]
[EventCountry "ITA"]
[Source "ChessBase"]
[SourceDate "1998.11.10"]

1. e4 e5 2. f4 d6 3. Bc4 c6 4. Nf3 Bg4 5. fxe5 dxe5 6. Bxf7+ Kxf7 7. Nxe5+ Ke8
8. Qxg4 Nf6 9. Qe6+ Qe7 10. Qc8+ Qd8 11. Qxd8+ Kxd8 12. Nf7+ 1-0

[Event "Sora"]
[Site "Sora"]
[Date "1575.??.??"]
[Round "?"]
[White "Polerio, Giulio Cesare"]
[Black "Lorenzo"]
[Result "1-0"]
[ECO "C53"]
[PlyCount "63"]
[EventDate "1570.??.??"]
[EventType "game"]
[EventRounds "1"]
[EventCountry "ITA"]
[Source "ChessBase"]
[SourceDate "2006.11.23"]

1. e4 e5 2. Nf3 Nc6 3. Bc4 Bc5 4. c3 Qe7 5. O-O d6 6. d4 Bb6 7. Bg5 Nf6 8. a4
a6 9. Bd5 Nb8 10. Nbd2 c6 11. Ba2 Bg4 12. Qb3 Ba7 13. Qd1 g6 14. dxe5 dxe5 15.
Bxf7+ Kd8 16. Nxe5 Qxe5 17. Bxf6+ Kc8 18. Qxg4+ Nd7 19. Bxh8 Qxh8 20. Be6 Qe8
21. Nc4 Kc7 22. Qf4+ Kd8 23. Qd6 Bb8 24. Qxd7+ Qxd7 25. Bxd7 Kxd7 26. Nb6+ Kd6
27. Nxa8 Ba7 28. Rfd1+ Kc5 29. Rd4 a5 30. Rad1 b5 31. b4+ axb4 32. cxb4# 1-0

[Event "Rome"]
[Site "Rome"]
[Date "1572.??.??"]
[Round "?"]
[White "Lopez de Segura, Ruy"]
[Black "Leonardo, Giovanni da Cutro"]
[Result "1-0"]
[ECO "C40"]
[PlyCount "18"]
[EventDate "1572.??.??"]
[EventType "match"]
[EventRounds "1"]
[EventCountry "ITA"]
[Source "ChessBase"]
[SourceDate "2006.11.23"]

1. e4 e5 2. Nf3 f6 3. Nxe5 fxe5 4. Qh5+ g6 5. Qxe5+ Qe7 6. Qxh8 Nf6 7. d4 Kf7
8. Bc4+ d5 9. Bxd5+ Nxd5 1-0

[Event "Huesca"]
[Site "Huesca"]
[Date "1515.??.??"]
[Round "?"]
[White "Lucena, Louis"]
[Black "Quintana"]
[Result "1-0"]
[ECO "A00"]
[PlyCount "63"]
[EventDate "1575.??.??"]
[EventType "game"]
[EventRounds "1"]
[EventCountry "ESP"]
[Source "ChessBase"]
[SourceDate "2006.11.23"]

1. c3 Nc6 2. d4 e6 3. e4 d5 4. exd5 exd5 5. g3 Bd6 6. Bh3 Bxh3 7. Nxh3 Qd7 8.
Nf4 Nf6 9. Qf3 Bxf4 10. Bxf4 O-O-O 11. O-O Qh3 12. Bg5 Ng4 13. Qg2 Qxg2+ 14.
Kxg2 f6 15. Bd2 Rhe8 16. Re1 Rxe1 17. Bxe1 Re8 18. Nd2 Nh6 19. Nf1 Nf5 20. Bd2
Nd6 21. h4 Ne4 22. Be3 g5 23. hxg5 fxg5 24. f3 Nd6 25. Bxg5 Re2+ 26. Kh3 Rxb2
27. Ne3 Nb5 28. Nxd5 Rc2 29. Re1 Nxc3 30. Re8+ Kd7 31. Nf6+ Kd6 32. Bf4+ 1-0

[Event "Madrid"]
[Site "Madrid"]
[Date "1575.??.??"]
[Round "1"]
[White "Leonardo, Giovanni da Cutro"]
[Black "Lopez de Segura, Ruy"]
[Result "1-0"]
[ECO "C41"]
[PlyCount "19"]
[EventDate "1575.??.??"]
[EventType "match"]
[EventRounds "2"]
[EventCountry "ESP"]
[Source "ChessBase"]
[SourceDate "2006.11.23"]

1. e4 e5 2. Nf3 d6 3. Bc4 f5 4. d3 Be7 5. Qe2 c6 6. h3 f4 7. g3 fxg3 8. fxg3
Qc7 9. Nc3 Nf6 10. b4 1-0

[Event "Madrid"]
[Site "Madrid"]
[Date "1575.??.??"]
[Round "2"]
[White "Leonardo, Giovanni da Cutro"]
[Black "Lopez de Segura, Ruy"]
[Result "1-0"]
[ECO "C53"]
[PlyCount "19"]
[EventDate "1575.??.??"]
[EventType "match"]
[EventRounds "2"]
[EventCountry "ESP"]
[Source "ChessBase"]
[SourceDate "2006.11.23"]

1. e4 e5 2. Nf3 Nc6 3. Bc4 Bc5 4. c3 Qe7 5. b4 Bb6 6. a4 a6 7. Ba3 d6 8. d3 Nf6
9. Qe2 Bg4 10. Nbd2 1-0

[Event "Spain casual"]
[Site "Spain"]
[Date "1575.??.??"]
[Round "?"]
[White "Scovara"]
[Black "Boi, Paolo"]
[Result "0-1"]
[ECO "C53"]
[PlyCount "27"]
[EventDate "1575.??.??"]
[EventType "game"]
[EventRounds "1"]
[EventCountry "ESP"]
[Source "ChessBase"]
[SourceDate "2006.11.23"]

1. e4 e5 2. Bc4 Bc5 3. Nf3 Nc6 4. c3 Qe7 5. d4 exd4 6. cxd4 Qxe4+ 7. Be3 Bb4+
8. Nc3 d5 9. Bd3 Qe7 10. h3 Nf6 11. Kf1 Kf8 12. g4 Kg8 13. Rh2 Bd6 14. Rg2 0-1

[Event "Rome"]
[Site "Rome"]
[Date "1572.??.??"]
[Round "?"]
[White "Polerio, Giulio Cesare"]
[Black "Leonardo, Giovanni da Cutro"]
[Result "0-1"]
[ECO "C40"]
[PlyCount "26"]
[EventDate "1590.??.??"]
[EventType "game"]
[EventRounds "1"]
[EventCountry "ITA"]
[Source "ChessBase"]
[SourceDate "2006.11.23"]

1. e4 e5 2. Nf3 f5 3. Nxe5 Qe7 4. Qh5+ g6 5. Nxg6 Qxe4+ 6. Kd1 Nf6 7. Qh4 Ng4
8. d3 hxg6 9. Qxh8 Nxf2+ 10. Kd2 Qg4 11. Qe5+ Kf7 12. Be2 Qg5+ 13. Kc3 Qh4 0-1

[Event "Rome"]
[Site "Rome"]
[Date "1590.??.??"]
[Round "?"]
[White "Busnardo"]
[Black "Polerio, Giulio Cesare"]
[Result "*"]
[ECO "C53"]
[PlyCount "20"]
[EventDate "1590.??.??"]
[EventType "game"]
[EventRounds "1"]
[EventCountry "ITA"]
[Source "ChessBase"]
[SourceDate "2006.11.23"]

1. e4 e5 2. Nf3 Nc6 3. Bc4 Bc5 4. c3 Qe7 5. O-O d6 6. d4 Bb6 7. Bg5 Nf6 8. Bd5
Nd8 9. Nbd2 c6 10. Bb3 Ne6 *

[Event "Rome"]
[Site "Rome"]
[Date "1590.??.??"]
[Round "?"]
[White "Polerio, Giulio Cesare"]
[Black "Busnardo"]
[Result "1-0"]
[ECO "C33"]
[PlyCount "21"]
[EventDate "1590.??.??"]
[EventType "game"]
[EventRounds "1"]
[EventCountry "ITA"]
[Source "ChessBase"]
[SourceDate "2006.11.23"]

1. e4 e5 2. f4 exf4 3. Bc4 Qh4+ 4. Kf1 g5 5. Nf3 Qh5 6. d4 d6 7. h4 g4 8. Ng5
Nh6 9. Bxf4 f6 10. Ne6 Bxe6 11. Bxe6 1-0

[Event "Rome"]
[Site "Rome"]
[Date "1590.??.??"]
[Round "?"]
[White "Saduleto, Giovanni"]
[Black "Polerio, Giulio Cesare"]
[Result "0-1"]
[ECO "C53"]
[PlyCount "48"]
[EventDate "1590.??.??"]
[EventType "game"]
[EventRounds "1"]
[EventCountry "ITA"]
[Source "ChessBase"]
[SourceDate "2006.11.23"]

1. e4 e5 2. Nf3 Nc6 3. Bc4 Bc5 4. c3 Qe7 5. O-O d6 6. d4 Bb6 7. Bg5 Nf6 8. d5
Nb8 9. Nbd2 Bg4 10. Qc2 h6 11. Bh4 g5 12. Bg3 a6 13. b4 Nbd7 14. a4 Nf8 15. a5
Ba7 16. b5 Ng6 17. bxa6 bxa6 18. Bxa6 Bxf2+ 19. Rxf2 Rxa6 20. Qd3 Ra8 21. Qb5+
Kf8 22. Qb7 Kg7 23. a6 Rhb8 24. Qc6 Ra7 0-1

[Event "Rome"]
[Site "Rome"]
[Date "1590.??.??"]
[Round "?"]
[White "Saduleto, Giovanni"]
[Black "Polerio, Giulio Cesare"]
[Result "*"]
[ECO "C53"]
[PlyCount "25"]
[EventDate "1590.??.??"]
[EventType "game"]
[EventRounds "1"]
[EventCountry "ITA"]
[Source "ChessBase"]
[SourceDate "2006.11.23"]

1. e4 e5 2. Nf3 Nc6 3. Bc4 Bc5 4. c3 Qe7 5. O-O d6 6. d4 Bb6 7. h3 h6 8. Be3
Nf6 9. Nbd2 O-O 10. Re1 Na5 11. Bd3 a6 12. Nf1 Ba7 13. Ng3 *

[Event "Rome"]
[Site "Rome"]
[Date "1620.??.??"]
[Round "?"]
[White "Greco, Gioacchino"]
[Black "NN"]
[Result "1-0"]
[ECO "C41"]
[PlyCount "11"]
[EventDate "1590.??.??"]
[EventType "game"]
[EventRounds "1"]
[EventCountry "ITA"]
[Source "ChessBase"]
[SourceDate "2006.11.23"]

1. e4 e5 2. Nf3 d6 3. h3 Nf6 4. c3 Nxe4 5. Qa4+ c6 6. Qxe4 1-0

[Event "Rome"]
[Site "Rome"]
[Date "1620.??.??"]
[Round "?"]
[White "Greco, Gioacchino"]
[Black "NN"]
[Result "1-0"]
[ECO "B20"]
[PlyCount "63"]
[EventDate "1590.??.??"]
[EventType "game"]
[EventRounds "1"]
[EventCountry "ITA"]
[Source "ChessBase"]
[SourceDate "2006.11.23"]

1. e4 c5 2. b4 cxb4 3. d4 e6 4. a3 bxa3 5. c4 Bb4+ 6. Bd2 Bxd2+ 7. Qxd2 d5 8.
e5 dxc4 9. Bxc4 Nc6 10. Ne2 Nge7 11. Rxa3 O-O 12. O-O Nf5 13. Rd3 a6 14. f4 b5
15. Bb3 a5 16. g4 Nh6 17. h3 a4 18. Bc2 b4 19. f5 exf5 20. g5 b3 21. Bd1 Qa5
22. Qf4 Qb4 23. Rg3 Bd7 24. gxh6 g6 25. Qg5 f6 26. exf6 Rf7 27. Nf4 Nxd4 28.
Nxg6 Ne6 29. Ne7+ Kh8 30. Qg7+ Nxg7 31. fxg7+ Rxg7 32. hxg7# 1-0

[Event "Rome"]
[Site "Rome"]
[Date "1620.??.??"]
[Round "?"]
[White "Greco, Gioacchino"]
[Black "NN"]
[Result "1-0"]
[ECO "C33"]
[PlyCount "39"]
[EventDate "1590.??.??"]
[EventType "game"]
[EventRounds "1"]
[EventCountry "ITA"]
[Source "ChessBase"]
[SourceDate "2006.11.23"]

1. e4 e5 2. f4 exf4 3. Bc4 Qh4+ 4. Kf1 d6 5. Nf3 Bg4 6. d4 Qh6 7. g3 g5 8. h4
f6 9. e5 dxe5 10. dxe5 fxe5 11. Qd5 Bxf3 12. Qxf3 c6 13. hxg5 Qxg5 14. gxf4
exf4 15. Bxf4 Qf6 16. Nc3 Bh6 17. Re1+ Kf8 18. Bxh6+ Nxh6 19. Qxf6+ Nf7 20.
Qxf7# 1-0

[Event "Rome"]
[Site "Rome"]
[Date "1620.??.??"]
[Round "?"]
[White "Greco, Gioacchino"]
[Black "NN"]
[Result "1-0"]
[ECO "C54"]
[PlyCount "37"]
[EventDate "1590.??.??"]
[EventType "game"]
[EventRounds "1"]
[EventCountry "ITA"]
[Source "ChessBase"]
[SourceDate "2006.11.23"]

1. e4 e5 2. Nf3 Nc6 3. Bc4 Bc5 4. c3 Nf6 5. d4 exd4 6. cxd4 Bb4+ 7. Nc3 Nxe4 8.
O-O Nxc3 9. bxc3 Bxc3 10. Qb3 Bxa1 11. Bxf7+ Kf8 12. Bg5 Ne7 13. Ne5 Bxd4 14.
Bg6 d5 15. Qf3+ Bf5 16. Bxf5 Bxe5 17. Be6+ Bf6 18. Bxf6 Ke8 19. Bxg7 1-0

[Event "Rome"]
[Site "Rome"]
[Date "1620.??.??"]
[Round "?"]
[White "Greco, Gioacchino"]
[Black "NN"]
[Result "1-0"]
[ECO "C54"]
[PlyCount "37"]
[EventDate "1590.??.??"]
[EventType "game"]
[EventRounds "1"]
[EventCountry "ITA"]
[Source "ChessBase"]
[SourceDate "2006.11.23"]

1. e4 e5 2. Nf3 Nc6 3. Bc4 Bc5 4. c3 Nf6 5. d4 exd4 6. cxd4 Bb4+ 7. Nc3 Nxe4 8.
O-O Bxc3 9. d5 Ne5 10. bxc3 Nxc4 11. Qd4 Ncd6 12. Qxg7 Qf6 13. Qxf6 Nxf6 14.
Re1+ Kd8 15. Bg5 Nde8 16. Rxe8+ Kxe8 17. Re1+ Kf8 18. Bh6+ Kg8 19. Re5 1-0

[Event "Rome"]
[Site "Rome"]
[Date "1620.??.??"]
[Round "?"]
[White "Greco, Gioacchino"]
[Black "NN"]
[Result "1-0"]
[ECO "C53"]
[PlyCount "27"]
[EventDate "1590.??.??"]
[EventType "game"]
[EventRounds "1"]
[EventCountry "ITA"]
[Source "ChessBase"]
[SourceDate "2006.11.23"]

1. e4 e5 2. Nf3 Nc6 3. Bc4 Bc5 4. c3 Qe7 5. O-O d6 6. d4 Bb6 7. Bg5 f6 8. Bh4
g5 9. Nxg5 fxg5 10. Qh5+ Kd7 11. Bxg5 Qg7 12. Be6+ Kxe6 13. Qe8+ Nce7 14. d5#
1-0

[Event "Rome"]
[Site "Rome"]
[Date "1620.??.??"]
[Round "?"]
[White "Greco, Gioacchino"]
[Black "NN"]
[Result "1-0"]
[ECO "C40"]
[PlyCount "21"]
[EventDate "1590.??.??"]
[EventType "game"]
[EventRounds "1"]
[EventCountry "ITA"]
[Source "ChessBase"]
[SourceDate "2006.11.23"]

1. e4 e5 2. Nf3 Qf6 3. Bc4 Qg6 4. O-O Qxe4 5. Bxf7+ Ke7 6. Re1 Qf4 7. Rxe5+
Kxf7 8. d4 Qf6 9. Ng5+ Kg6 10. Qd3+ Kh5 11. g4+ 1-0
